[
  {
    "number": 1,
    "symbol": "A",
    "name": "ace",
    "suit": "spides"
  },
  {
    "number": 2,
    "symbol": "2",
    "name": "two",
    "suit": "spides"
  },
  {
    "number": 3,
    "symbol": "3",
    "name": "three",
    "suit": "spides"
  },
  {
    "number": 4,
    "symbol": "4",
    "name": "four",
    "suit": "spides"
  },
  {
    "number": 5,
    "symbol": "5",
    "name": "five",
    "suit": "spides"
  },
  {
    "number": 6,
    "symbol": "6",
    "name": "six",
    "suit": "spides"
  },
  {
    "number": 7,
    "symbol": "7",
    "name": "seven",
    "suit": "spides"
  },
  {
    "number": 8,
    "symbol": "8",
    "name": "eight",
    "suit": "spides"
  },
  {
    "number": 9,
    "symbol": "9",
    "name": "nine",
    "suit": "spides"
  },
  {
    "number": 10,
    "symbol": "10",
    "name": "ten",
    "suit": "spides"
  },
  {
    "number": 11,
    "symbol": "J",
    "name": "jack",
    "suit": "spides"
  },
  {
    "number": 12,
    "symbol": "Q",
    "name": "queen",
    "suit": "spides"
  },
  {
    "number": 13,
    "symbol": "K",
    "name": "king",
    "suit": "spides"
  },
  {
    "number": 1,
    "symbol": "A",
    "name": "ace",
    "suit": "hearts"
  },
  {
    "number": 2,
    "symbol": "2",
    "name": "two",
    "suit": "hearts"
  },
  {
    "number": 3,
    "symbol": "3",
    "name": "three",
    "suit": "hearts"
  },
  {
    "number": 4,
    "symbol": "4",
    "name": "four",
    "suit": "hearts"
  },
  {
    "number": 5,
    "symbol": "5",
    "name": "five",
    "suit": "hearts"
  },
  {
    "number": 6,
    "symbol": "6",
    "name": "six",
    "suit": "hearts"
  },
  {
    "number": 7,
    "symbol": "7",
    "name": "seven",
    "suit": "hearts"
  },
  {
    "number": 8,
    "symbol": "8",
    "name": "eight",
    "suit": "hearts"
  },
  {
    "number": 9,
    "symbol": "9",
    "name": "nine",
    "suit": "hearts"
  },
  {
    "number": 10,
    "symbol": "10",
    "name": "ten",
    "suit": "hearts"
  },
  {
    "number": 11,
    "symbol": "J",
    "name": "jack",
    "suit": "hearts"
  },
  {
    "number": 12,
    "symbol": "Q",
    "name": "queen",
    "suit": "hearts"
  },
  {
    "number": 13,
    "symbol": "K",
    "name": "king",
    "suit": "hearts"
  },
  {
    "number": 1,
    "symbol": "A",
    "name": "ace",
    "suit": "clubs"
  },
  {
    "number": 2,
    "symbol": "2",
    "name": "two",
    "suit": "clubs"
  },
  {
    "number": 3,
    "symbol": "3",
    "name": "three",
    "suit": "clubs"
  },
  {
    "number": 4,
    "symbol": "4",
    "name": "four",
    "suit": "clubs"
  },
  {
    "number": 5,
    "symbol": "5",
    "name": "five",
    "suit": "clubs"
  },
  {
    "number": 6,
    "symbol": "6",
    "name": "six",
    "suit": "clubs"
  },
  {
    "number": 7,
    "symbol": "7",
    "name": "seven",
    "suit": "clubs"
  },
  {
    "number": 8,
    "symbol": "8",
    "name": "eight",
    "suit": "clubs"
  },
  {
    "number": 9,
    "symbol": "9",
    "name": "nine",
    "suit": "clubs"
  },
  {
    "number": 10,
    "symbol": "10",
    "name": "ten",
    "suit": "clubs"
  },
  {
    "number": 11,
    "symbol": "J",
    "name": "jack",
    "suit": "clubs"
  },
  {
    "number": 12,
    "symbol": "Q",
    "name": "queen",
    "suit": "clubs"
  },
  {
    "number": 13,
    "symbol": "K",
    "name": "king",
    "suit": "clubs"
  },
  {
    "number": 1,
    "symbol": "A",
    "name": "ace",
    "suit": "diamonds"
  },
  {
    "number": 2,
    "symbol": "2",
    "name": "two",
    "suit": "diamonds"
  },
  {
    "number": 3,
    "symbol": "3",
    "name": "three",
    "suit": "diamonds"
  },
  {
    "number": 4,
    "symbol": "4",
    "name": "four",
    "suit": "diamonds"
  },
  {
    "number": 5,
    "symbol": "5",
    "name": "five",
    "suit": "diamonds"
  },
  {
    "number": 6,
    "symbol": "6",
    "name": "six",
    "suit": "diamonds"
  },
  {
    "number": 7,
    "symbol": "7",
    "name": "seven",
    "suit": "diamonds"
  },
  {
    "number": 8,
    "symbol": "8",
    "name": "eight",
    "suit": "diamonds"
  },
  {
    "number": 9,
    "symbol": "9",
    "name": "nine",
    "suit": "diamonds"
  },
  {
    "number": 10,
    "symbol": "10",
    "name": "ten",
    "suit": "diamonds"
  },
  {
    "number": 11,
    "symbol": "J",
    "name": "jack",
    "suit": "diamonds"
  },
  {
    "number": 12,
    "symbol": "Q",
    "name": "queen",
    "suit": "diamonds"
  },
  {
    "number": 13,
    "symbol": "K",
    "name": "king",
    "suit": "diamonds"
  }
]